void print(string str)
{
}

void println(string str)
{
}

string getString()
{
}

int getInt()
{
}

string toString(int i)
{
    string ret = "";
    bool minusSign = false;
    if(i < 0)
    {
        minusSign = true;
        i = -i;
    }
    if(i == 0)
    {
        ret = "0";
        return ret;
    }
    int tmp = i;
    while(tmp != 0)
    {
        if(tmp % 10 == 0)
            ret = "0" + ret;
        else if(tmp % 10 == 1)
            ret = "1" + ret;
        else if(tmp % 10 == 2)
            ret = "2" + ret;
        else if(tmp % 10 == 3)
            ret = "3" + ret;
        else if(tmp % 10 == 4)
            ret = "4" + ret;
        else if(tmp % 10 == 5)
            ret = "5" + ret;
        else if(tmp % 10 == 6)
            ret = "6" + ret;
        else if(tmp % 10 == 7)
            ret = "7" + ret;
        else if(tmp % 10 == 8)
            ret = "8" + ret;
        else if(tmp % 10 == 9)
            ret = "9" + ret;
        tmp = tmp / 10;
    }
    if(minusSign)
        ret = "-" + ret;
    return ret;
}

class string
{
}
int __builtin__length(string x)
{
}
string __builtin__substring(string x, int left, int right)
{
}
int __builtin_printIntln(int x)
{
}
int __builtin_printInt(int x)
{
}
void print_constant(string x){

}
void println_constant(string x){

}
int __builtin__parseInt(string x)
{
    int i; int len;
    len = x.length();
    int ret = 0; int cur;
    for(i = 0; i < len; ++i)
    {
        cur = x.ord(i);
        if(cur < 48)
            break;
        if(cur > 57)
        	break;
        ret = ret * 10 + (cur - 48);
    }
    return ret;
}
int __builtin__ord(string x, int pos)
{
}
string __builtin__string_add(string a, string b)
{
}
bool __builtin__string_cmp_EQ(string a, string b)
{
    int len1; int len2;
    len1 = a.length(); len2 = b.length();
    if(len1 != len2)
        return false;
    int i;
    for(i = 0; i < len1; ++i)
    {
        if(a.ord(i) != b.ord(i))
            return false;
    }
    return true;
}
bool __builtin__string_cmp_LT(string a, string b)
{
    int len1; int len2;
    len1 = a.length(); len2 = b.length();
    int len;
    len = len2;
    if(len1 < len2)
        len = len1;
    int i;
    for(i = 0; i < len; ++i)
    {
        if(a.ord(i) < b.ord(i))
            return true;
        if(a.ord(i) > b.ord(i))
            return false;
    }
    if(len1 < len2)
        return true;
    return false;
}
bool __builtin__string_cmp_LE(string a, string b)
{
    int len1; int len2;
    len1 = a.length(); len2 = b.length();
    int len;
    len = len2;
    if(len1 < len2)
        len = len1;
    int i;
    for(i = 0; i < len; ++i)
    {
        if(a.ord(i) < b.ord(i))
            return true;
        if(a.ord(i) > b.ord(i))
            return false;
    }
    if(len1 <= len2)
        return true;
    return false;
}
bool __builtin__string_cmp_GT(string a, string b)
{
    int len1; int len2;
    len1 = a.length(); len2 = b.length();
    int len;
    len = len2;
    if(len1 < len2)
        len = len1;
    int i;
    for(i = 0; i < len; ++i)
    {
        if(a.ord(i) < b.ord(i))
            return false;
        if(a.ord(i) > b.ord(i))
            return true;
    }
    if(len1 <= len2)
        return false;
    return true;
}
bool __builtin__string_cmp_GE(string a, string b)
{
    int len1; int len2;
    len1 = a.length(); len2 = b.length();
    int len;
    len = len2;
    if(len1 < len2)
        len = len1;
    int i;
    for(i = 0; i < len; ++i)
    {
        if(a.ord(i) < b.ord(i))
            return false;
        if(a.ord(i) > b.ord(i))
            return true;
    }
    if(len1 < len2)
        return false;
    return true;
}