^C:\USERS\天成\DOCUMENTS\BITBUCKET\COMPILER2016\SRC\OPTIMIZATION\DEADCODE\DEADCODE\MAIN.CPP
C:\USERS\天成\DOCUMENTS\BITBUCKET\COMPILER2016\SRC\OPTIMIZATION\DEADCODE\DEADCODE\RELEASE\VC140.PDB
C:\USERS\天成\DOCUMENTS\BITBUCKET\COMPILER2016\SRC\OPTIMIZATION\DEADCODE\DEADCODE\RELEASE\MAIN.OBJ
